…
    ## [1] 266

``` r
length(unique(metadata$'Country Code'))
```

    ## [1] 265

``` r
new_world_pop %>% anti_join(metadata, by = "Country Code")
```

    ## # A tibble: 61 × 3
    ##    `Country Code`  year total_pop
    ##    <chr>          <int>     <dbl>
    ##  1 INX             1960        NA
    ##  2 INX             1961        NA
    ##  3 INX             1962        NA
    ##  4 INX             1963        NA
    ##  5 INX             1964        NA
    ##  6 INX             1965        NA
    ##  7 INX             1966        NA
    ##  8 INX             1967        NA
    ##  9 INX             1968        NA
    ## 10 INX             1969        NA
    ## # ℹ 51 more rows
…
